<?xml version="1.0" standalone="no"?>
<!DOCTYPE svg PUBLIC "-//W3C//DTD SVG 1.1//EN" "http://www.w3.org/Graphics/SVG/1.1/DTD/svg11.dtd">
<svg xmlns="http://www.w3.org/2000/svg">
<metadata>Copyright (C) 2018 by original authors @ fontello.com</metadata>
<defs>
<font id="inlife" horiz-adv-x="1000" >
<font-face font-family="inlife" font-weight="400" font-stretch="normal" units-per-em="1000" ascent="850" descent="-150" />
<missing-glyph horiz-adv-x="1000" />
<glyph glyph-name="houses" unicode="&#xe800;" d="M1074-113l-444 0 0 74-37 0 0-74-167 0 0 241c0 10-8 18-19 18l-185 0c-10 0-18-8-18-18l0-241-167 0 0 344 32 32 148 148 98 98 278-278 0-196 37 0 0 185 444 0 0-333z m-833 0l148 0 0 222-148 0 0-222z m-183 541c-27 27-28 71-3 100 6 7 6 17 0 24-11 13-18 30-18 48 0 41 33 74 74 74l0 0c2 0 3 0 4 0 10-1 19 7 20 17 0 2-1 5-1 7-3 7-4 15-4 22 0 41 33 74 74 74 41 0 74-33 74-74 0-7-2-15-4-22-3-10 2-20 12-23 2-1 4-1 6-1 2 0 3 0 4 0 41 0 74-33 74-74 0-17-5-33-16-46l-39 0c-2 0-4-1-6-1-1-1-1 0-1-1 0 0-1 0-1 0-2-1-3-2-4-3-1 0-1 0-1-1l-80-79 0 196c0 10-8 18-18 18-10 0-19-8-19-18l0-104-42 43c-8 7-19 7-26-1-7-7-7-18 0-25l68-69 0-77-18-19-24 24c-8 7-19 7-26 0-7-7-7-19 0-26l24-24-86-85c-11 13-18 30-18 48 0 19 8 38 21 52 7 7 7 19 0 26z m434 89l52-56-129 0-55 56 132 0z m148 0l52-56-97 0-52 56 97 0z m149 0l55-56-101 0-52 56 98 0z m148-148l-107 0-52 55 103 0 56-55z m-221-37l98 0 69-75-97 0-70 75z m-50 0l69-75-116 0-74 75 121 0z m-36 92l97 0 52-55-97 0-52 55z m1-55l-123 0-56 55 127 0 52-55z m417-112l-114 0-69 75 109 0 74-75z m63-17c0 2 0 3-1 5 0 0 0 1-1 2-1 2-2 3-3 5l-297 296c-3 4-8 6-13 6l-399 0c7 14 10 30 10 46 0 54-39 101-93 110 1 3 1 7 1 10 0 62-50 112-111 112-62 0-111-50-111-112 0-3 0-7 0-10-60-10-101-67-92-127 3-15 9-30 17-43-25-38-24-88 3-125-31-43-27-101 8-139l-23-24c-4-3-6-8-6-13l0-371c0-10 8-18 19-18l1074 0c10 0 18 8 18 18l0 371c0 0 0 1 0 1z" horiz-adv-x="1111" />

<glyph glyph-name="housing-trip" unicode="&#xe801;" d="M306-43c8-6 20-6 27 0 1 0 32 24 75 67 62-13 95-37 95-53 0-12-19-27-47-39-36-15-84-23-136-23-110 0-183 37-183 62 0 16 33 40 94 53 43-42 74-66 75-67m14 817c-177 0-320-143-320-319 0-109 52-227 154-348 13-16 27-32 41-47-65-19-102-51-102-89 0-69 117-106 227-106 110 0 227 37 227 106 0 38-38 70-103 89 29 31 55 62 78 93 1 2 2 4 3 6l-35 23c-1-1-2-2-3-3-28-38-61-75-97-112-4-2-7-5-9-9-25-25-47-43-61-55-14 11-35 30-60 54-2 5-6 8-11 11-169 170-205 304-205 387 0 152 124 275 276 275 152 0 275-123 275-275 0-65-21-135-63-208l36-24c47 80 71 158 71 232 0 176-143 319-319 319m656-196c0 38 31 69 70 69 38 0 69-31 69-69 0-38-31-69-69-69-39 0-70 31-70 69m183 0c0 62-51 113-113 113-63 0-114-51-114-113 0-62 51-113 114-113 62 0 113 51 113 113m-113-414c-90 0-136 30-136 42 0 7 19 25 66 35 32-30 55-49 56-50 8-5 19-5 27 0 3 2 25 20 56 50 21-4 38-11 50-18 12-7 16-14 16-17 0-12-46-42-135-42m105 113c9 10 18 20 26 30 79 95 119 186 119 271 0 138-112 251-250 251-98 0-187-57-228-146l37-24c33 76 108 126 191 126 114 0 207-93 207-207 0-152-156-297-207-341-10 9-25 22-42 39-2 3-5 7-9 9-122 122-153 220-156 282l-44 0c4-82 43-169 119-260 9-10 17-20 27-30-48-15-75-40-75-71 0-26 21-50 60-66 32-13 75-20 120-20 45 0 87 7 119 20 39 16 60 40 60 66 0 30-27 56-74 71m-872 265c2 1 5 2 7 3 4 1 8 3 13 4 1 0 3 0 5 1 4 1 9 1 14 1 0 0 1 0 2 0 39 0 72-23 87-56 1-2 2-4 3-7 2-4 3-8 4-12 0-2 1-4 1-5 1-5 1-10 1-14 0-1 0-2 0-2 0-27-10-51-28-69-17-17-42-28-68-28-27 0-51 11-69 28-17 18-28 42-28 69 0 38 23 72 56 87m181-87c0 75-59 137-134 140-2 0-4 0-6 0-76 0-137-59-141-134 0-2 0-4 0-6 0-39 16-74 41-100 26-25 61-41 100-41 39 0 74 16 99 41 26 26 41 61 41 100" horiz-adv-x="1300" />

<glyph glyph-name="my-inlife-advisor" unicode="&#xe803;" d="M254 217c-10 0-20 4-27 13l-93 116-62 0c-40 0-72 32-72 71l0 362c0 39 32 71 72 71l823 0c40 0 72-32 72-71l0-362c0-39-32-71-72-71l-274 0 0 33 274 0c21 0 38 17 38 38l0 362c0 21-17 37-38 37l-823 0c-21 0-39-16-39-37l0-362c0-21 18-38 39-38l77 1 104-129c1 0 1-1 2 0l1 129 72 0 0-34-38 0 0-94c0-15-9-28-23-33-4-2-9-2-13-2m221 216c-42 0-75-33-75-76l0-31c0-42 33-75 75-75 41 0 75 34 75 75l0 31c0 42-34 76-75 76m0-216c-60 0-108 49-108 109l0 31c0 61 48 110 108 110 60 0 108-49 108-110l0-31c0-60-48-109-108-109m-185-116c0 53 113 73 184 73 71 0 184-20 184-73l0-218-58 0 0 144-33 0 0-144-186 0 0 144-33 0 0-144-58 0 0 218z m402 0c0 84-137 106-218 106-80 0-217-22-217-106l0-218-111 0 0-33 748 0 0 33-202 0 0 218z" horiz-adv-x="975" />

<glyph glyph-name="operator" unicode="&#xe804;" d="M175 429l229 0c9 0 17 8 17 18 0 9-8 17-17 17l-229 0c-9 0-17-8-17-17 0-10 8-18 17-18m0-105l457 0c9 0 17 8 17 17 0 10-8 18-17 18l-457 0c-9 0-17-8-17-18 0-9 8-17 17-17m474-88c0 10-8 18-17 18l-457 0c-9 0-17-8-17-18 0-10 8-18 17-18l457 0c9 0 17 8 17 18m369 120l0 0c0-38-31-69-69-69l-37 0c-9 0-17-7-17-17l0-148-88 97 0 316c0 58-47 105-104 105l-422-1 0 89c0 39 31 69 69 69l599-1 0 0c38 0 69-31 69-69l0-371z m-69 475l-599 2c-58 0-104-47-104-105l0-89-142-1c-57 0-104-46-104-104l0-371c0-57 47-104 104-104l107 0 0-175c0-7 4-14 11-17 2 0 4-1 6-1 5 0 10 2 13 6l170 187 63 1 0 35-71-1c-4 0-9-2-12-5l-145-160 0 148c0 10-8 17-18 17l-124 0c-38 0-69 31-69 69l0 371c0 38 31 69 69 69l159 1 0 0 440 0c38 0 69-30 69-68l0-324 0-47c0-38-31-69-69-69l-159-1 0-35 159 1c57 0 104 46 104 104l0 2 92-102c4-4 8-6 13-6 2 0 5 1 7 1 6 3 11 10 11 17l0 175 19 0c57 0 104 47 104 104l0 371c0 58-47 104-104 104z" horiz-adv-x="1053" />
</font>
</defs>
</svg>